{
  "$defs": {
    "IdentityProvider": {
      "additionalProperties": false,
      "description": "IdentityProvider tracks SAML identity providers swagger:model",
      "properties": {
        "Available": {
          "description": "Available tracks whether or not the model passed validation.\nread only: true",
          "type": "boolean"
        },
        "Bundle": {
          "description": "Bundle tracks the name of the store containing this object.\nThis field is read-only, and cannot be changed via the API.\n\nread only: true",
          "type": "string"
        },
        "DefaultRole": {
          "description": "DefaultRole - defines the default role to give these users",
          "type": "string"
        },
        "DenyIfNoGroups": {
          "description": "DenyIfNoGroups - defines if the auth should fail if no groups are found in the GroupAttribute",
          "type": "boolean"
        },
        "Description": {
          "description": "A description of this Identity Provider.  This should tell what it is for,\nany special considerations that should be taken into account when\nusing it, etc.",
          "type": "string"
        },
        "DisplayName": {
          "description": "DisplayName - The name to display to user",
          "type": "string"
        },
        "Documentation": {
          "description": "Documentation of this Identity Provider.  This should tell what\nthe identity provider is for, any special considerations that\nshould be taken into account when using it, etc. in rich structured text (rst).",
          "type": "string"
        },
        "Endpoint": {
          "description": "Endpoint tracks the owner of the object among DRP endpoints\nread only: true",
          "type": "string"
        },
        "Errors": {
          "description": "If there are any errors in the validation process, they will be\navailable here.\nread only: true",
          "items": {
            "type": "string"
          },
          "type": "array"
        },
        "GroupAttribute": {
          "description": "GroupAttribute - specifies the attribute in the Assertions to use as group memberships",
          "type": "string"
        },
        "GroupToRoles": {
          "description": "GroupToRoles - defines the group names that map to DRP Roles",
          "patternProperties": {
            ".*": {
              "items": {
                "type": "string"
              },
              "type": "array"
            }
          },
          "type": "object"
        },
        "LogoPath": {
          "description": "LogoPath - The path on DRP or the URL to the logo icon",
          "type": "string"
        },
        "Meta": {
          "$ref": "#/$defs/Meta"
        },
        "MetaDataBlob": {
          "description": "MetaDataBlob - String form of the metadata - instead of MetaDataUrl",
          "type": "string"
        },
        "MetaDataUrl": {
          "description": "MetaDataUrl - URL to get the metadata for this IdP - instead of MetaDataBlob",
          "type": "string"
        },
        "Name": {
          "description": "Name is the name of this identity provider\n\nrequired: true",
          "type": "string"
        },
        "ReadOnly": {
          "description": "ReadOnly tracks if the store for this object is read-only.\nThis flag is informational, and cannot be changed via the API.\n\nread only: true",
          "type": "boolean"
        },
        "UserAttribute": {
          "description": "UserAttribute - specifies the attribute in the Assertions to use as username",
          "type": "string"
        },
        "Validated": {
          "description": "Validated tracks whether or not the model has been validated.\nread only: true",
          "type": "boolean"
        }
      },
      "type": "object"
    },
    "Meta": {
      "description": "Meta holds information about arbitrary things.",
      "patternProperties": {
        ".*": {
          "type": "string"
        }
      },
      "type": "object"
    }
  },
  "$id": "https://gitlab.com/rackn/provision/v4/models/identity-provider",
  "$ref": "#/$defs/IdentityProvider",
  "$schema": "https://json-schema.org/draft/2020-12/schema"
}
