{
  "$defs": {
    "Claim": {
      "additionalProperties": false,
      "description": "Claim is an individial specifier for something we are allowed access to.",
      "properties": {
        "action": {
          "type": "string"
        },
        "scope": {
          "type": "string"
        },
        "specific": {
          "type": "string"
        }
      },
      "type": "object"
    },
    "Meta": {
      "description": "Meta holds information about arbitrary things.",
      "patternProperties": {
        ".*": {
          "type": "string"
        }
      },
      "type": "object"
    },
    "Role": {
      "additionalProperties": false,
      "description": "Role is used to determine which operations on which API endpoints are permitted.",
      "properties": {
        "Available": {
          "description": "Available tracks whether or not the model passed validation.\nread only: true",
          "type": "boolean"
        },
        "Bundle": {
          "description": "Bundle tracks the name of the store containing this object.\nThis field is read-only, and cannot be changed via the API.\n\nread only: true",
          "type": "string"
        },
        "Claims": {
          "description": "Claims that the role support.",
          "items": {
            "$ref": "#/$defs/Claim"
          },
          "type": "array"
        },
        "Description": {
          "description": "Description of role",
          "type": "string"
        },
        "Documentation": {
          "description": "Documentation of this role.  This should tell what\nthe role is for, any special considerations that\nshould be taken into account when using it, etc. in rich structured text (rst).",
          "type": "string"
        },
        "Endpoint": {
          "description": "Endpoint tracks the owner of the object among DRP endpoints\nread only: true",
          "type": "string"
        },
        "Errors": {
          "description": "If there are any errors in the validation process, they will be\navailable here.\nread only: true",
          "items": {
            "type": "string"
          },
          "type": "array"
        },
        "Meta": {
          "$ref": "#/$defs/Meta"
        },
        "Name": {
          "description": "Name is the name of the user\n\nrequired: true",
          "type": "string"
        },
        "ReadOnly": {
          "description": "ReadOnly tracks if the store for this object is read-only.\nThis flag is informational, and cannot be changed via the API.\n\nread only: true",
          "type": "boolean"
        },
        "Validated": {
          "description": "Validated tracks whether or not the model has been validated.\nread only: true",
          "type": "boolean"
        }
      },
      "type": "object"
    }
  },
  "$id": "https://gitlab.com/rackn/provision/v4/models/role",
  "$ref": "#/$defs/Role",
  "$schema": "https://json-schema.org/draft/2020-12/schema"
}
